{
  "routes": [
    {
      "method": "GET",
      "path": "/infoclients",
      "handler": "Infoclient.find",
      "config": {
        "policies": []
      }
    },
    {
      "method": "GET",
      "path": "/infoclients/count",
      "handler": "Infoclient.count",
      "config": {
        "policies": []
      }
    },
    {
      "method": "GET",
      "path": "/infoclients/:_id",
      "handler": "Infoclient.findOne",
      "config": {
        "policies": []
      }
    },
    {
      "method": "POST",
      "path": "/infoclients",
      "handler": "Infoclient.create",
      "config": {
        "policies": []
      }
    },
    {
      "method": "PUT",
      "path": "/infoclients/:_id",
      "handler": "Infoclient.update",
      "config": {
        "policies": []
      }
    },
    {
      "method": "DELETE",
      "path": "/infoclients/:_id",
      "handler": "Infoclient.destroy",
      "config": {
        "policies": []
      }
    }
  ]
}